[
  {
    "line": 1,
    "elements": [
      {
        "start_timestamp": "2020-08-26T05:27:26.723Z",
        "before": [
          {
            "result": {
              "duration": 4279571200,
              "status": "passed"
            },
            "match": {
              "location": "stepDefination.Hooks.intializeTheBrowser()"
            }
          }
        ],
        "line": 4,
        "name": "Verify successfull navigation to Idenetiy page after login",
        "description": "",
        "id": "verification-of-personal-details-for-correct-credentials;verify-successfull-navigation-to-idenetiy-page-after-login",
        "after": [
          {
            "result": {
              "duration": 669007300,
              "status": "passed"
            },
            "match": {
              "location": "stepDefination.Hooks.QuitDriver()"
            }
          }
        ],
        "type": "scenario",
        "keyword": "Scenario",
        "steps": [
          {
            "result": {
              "duration": 24620156700,
              "status": "passed"
            },
            "line": 5,
            "name": "User is on login page",
            "match": {
              "location": "stepDefination.LoginStepLibrary.launchLoginPage()"
            },
            "keyword": "Given "
          },
          {
            "result": {
              "error_message": "org.junit.ComparisonFailure: expected:\u003c[My Store]\u003e but was:\u003c[automationpractice.com]\u003e\r\n\tat org.junit.Assert.assertEquals(Assert.java:115)\r\n\tat org.junit.Assert.assertEquals(Assert.java:144)\r\n\tat stepDefination.LoginStepLibrary.verifyTitle(LoginStepLibrary.java:32)\r\n\tat ✽.User see title of web page is \"My Store\"(file:///C:/Users/Devesh/git/bdd/bdd/Features/verifyInformation.feature:6)\r\n",
              "duration": 19994600,
              "status": "failed"
            },
            "line": 6,
            "name": "User see title of web page is \"My Store\"",
            "match": {
              "arguments": [
                {
                  "val": "My Store",
                  "offset": 31
                }
              ],
              "location": "stepDefination.LoginStepLibrary.verifyTitle(java.lang.String)"
            },
            "keyword": "When "
          },
          {
            "result": {
              "duration": 2000100,
              "status": "skipped"
            },
            "line": 7,
            "name": "User clicks on sign in link",
            "match": {
              "location": "stepDefination.LoginStepLibrary.clickOnSignInLink()"
            },
            "keyword": "And "
          },
          {
            "result": {
              "duration": 1998600,
              "status": "skipped"
            },
            "line": 8,
            "name": "User enters email and password",
            "match": {
              "location": "stepDefination.LoginStepLibrary.enterCredentials(io.cucumber.datatable.DataTable)"
            },
            "rows": [
              {
                "cells": [
                  "monu@demo.com",
                  "monu@123"
                ]
              }
            ],
            "keyword": "And "
          },
          {
            "result": {
              "status": "skipped"
            },
            "line": 10,
            "name": "User clicks on sign in button",
            "match": {
              "location": "stepDefination.LoginStepLibrary.clickOnSignInButton()"
            },
            "keyword": "Then "
          },
          {
            "result": {
              "duration": 1002100,
              "status": "skipped"
            },
            "line": 11,
            "name": "User see title of web page is \"My account - My Store\"",
            "match": {
              "arguments": [
                {
                  "val": "My account - My Store",
                  "offset": 31
                }
              ],
              "location": "stepDefination.LoginStepLibrary.verifyTitle(java.lang.String)"
            },
            "keyword": "When "
          },
          {
            "result": {
              "duration": 1003800,
              "status": "skipped"
            },
            "line": 12,
            "name": "User clicks on My personal information tab",
            "match": {
              "location": "stepDefination.LoginStepLibrary.clickOnTab()"
            },
            "keyword": "And "
          },
          {
            "result": {
              "duration": 999000,
              "status": "skipped"
            },
            "line": 13,
            "name": "User navigates to Identity page",
            "match": {
              "location": "stepDefination.LoginStepLibrary.navigateToIdentityPage()"
            },
            "keyword": "Then "
          }
        ],
        "tags": [
          {
            "name": "@tagDemo"
          }
        ]
      }
    ],
    "name": "Verification of Personal details for correct credentials",
    "description": "",
    "id": "verification-of-personal-details-for-correct-credentials",
    "keyword": "Feature",
    "uri": "file:Features/verifyInformation.feature",
    "tags": []
  }
]